0.0	1.000986960440109
1.0	4.9141789481647456e8
2.0	1.4560530198247635e8
3.0	4.314231148842784e7
4.0	1.2782906881121496e7
5.0	3.787527727231149e6
6.0	1.1222301928293845e6
7.0	332512.39997649734
8.0	98521.93958059305
9.0	29191.43062830578
10.0	8649.056164049589
11.0	2562.4257465209034
12.0	758.9791142328876
13.0	224.6243321527602
14.0	66.2973937857432
15.0	19.387837474568798
16.0	5.496256006827849
17.0	1.4042520065992457
18.0	0.25556340434479097
19.0	0.01692857166917383
20.0	9.35494498794931e-5
21.0	2.9053539574164233e-9
22.0	7.771561172376096e-16
